<svg xmlns="http://www.w3.org/2000/svg" width="110" height="233" viewBox="0 0 110 233">
  <text id="_5" data-name="5" transform="translate(0 188)" fill="#f5f5f5" font-size="196" font-family="Helvetica-Bold, Helvetica" font-weight="700"><tspan x="0" y="0">5</tspan></text>
</svg>
